<?xml version="1.0" encoding="iso-8859-1"?>
<!-- Generator: Adobe Illustrator 19.0.0, SVG Export Plug-In . SVG Version: 6.00 Build 0)  -->
<svg version="1.1" id="Layer_1" xmlns="http://www.w3.org/2000/svg" xmlns:xlink="http://www.w3.org/1999/xlink" x="0px" y="0px"
	 viewBox="0 0 512 512" style="enable-background:new 0 0 512 512;" xml:space="preserve">
<path style="fill:#AE97FB;" d="M230.51,332.373l-111.819-76.02c-8.374-3.905-18.28-0.288-22.169,8.07L18.44,431.87
	c-6.305,13.497,7.023,27.81,20.821,22.727l69.204-25.193l5.192,2.421l25.193,69.204c5.049,13.899,24.496,14.857,30.793,1.341
	l68.938-147.831C242.48,346.195,238.863,336.267,230.51,332.373z"/>
<path style="fill:#9A7FFA;" d="M493.564,431.87L415.48,264.423c-3.899-8.347-13.805-11.97-22.169-8.07l-111.819,76.02
	c-8.353,3.894-11.97,13.822-8.07,22.169l68.938,147.831c6.284,13.487,25.732,12.587,30.793-1.341l25.193-69.204l5.192-2.421
	l69.204,25.193C486.63,459.696,499.839,445.304,493.564,431.87z"/>
<path style="fill:#F5DC48;" d="M256.001,367.032c-101.186,0-183.516-82.325-183.516-183.516S154.815,0,256.001,0
	s183.516,82.325,183.516,183.516S357.188,367.032,256.001,367.032z"/>
<path style="fill:#EDBA43;" d="M439.517,183.516C439.517,82.325,357.188,0,256.001,0v367.032
	C357.188,367.032,439.517,284.707,439.517,183.516z"/>
<path style="fill:#E9B147;" d="M256.001,33.367c-82.797,0-150.15,67.358-150.15,150.15s67.353,150.15,150.15,150.15
	s150.15-67.358,150.15-150.15S338.799,33.367,256.001,33.367z"/>
<path style="fill:#DF9642;" d="M406.151,183.516c0-82.791-67.353-150.15-150.15-150.15v300.299
	C338.799,333.666,406.151,266.307,406.151,183.516z"/>
<path style="fill:#F5DC48;" d="M336.081,141.585l-45.045-6.562l-20.131-40.707c-3.003-6.228-8.898-9.343-14.904-9.343
	s-11.901,3.114-14.904,9.343l-20.131,40.707l-45.045,6.562c-13.68,2.002-19.019,18.796-9.231,28.473l32.589,31.698l-7.674,44.822
	c-2.336,13.569,11.901,24.024,24.135,17.573l40.262-21.132l40.262,21.132c12.123,6.34,26.582-3.893,24.135-17.573l-7.674-44.822
	l32.589-31.698C355.211,160.382,349.65,143.587,336.081,141.585z"/>
<path style="fill:#EDBA43;" d="M345.312,170.058l-32.589,31.698l7.674,44.822c2.447,13.68-12.012,23.913-24.135,17.573L256,243.02
	V84.974c6.006,0,11.901,3.114,14.904,9.343l20.131,40.707l45.045,6.562C349.65,143.587,355.211,160.382,345.312,170.058z"/>
<g>
</g>
<g>
</g>
<g>
</g>
<g>
</g>
<g>
</g>
<g>
</g>
<g>
</g>
<g>
</g>
<g>
</g>
<g>
</g>
<g>
</g>
<g>
</g>
<g>
</g>
<g>
</g>
<g>
</g>
</svg>
