<svg version="1.1" xmlns="http://www.w3.org/2000/svg" xmlns:xlink="http://www.w3.org/1999/xlink" style="" xml:space="preserve" width="512" height="512"><rect id="backgroundrect" width="100%" height="100%" x="0" y="0" fill="none" stroke="none"/>
























<g class="currentLayer" style=""><title>Layer 1</title><g id="svg_1" class="" fill="#eb1a1a" fill-opacity="1" opacity="1">
	<g id="svg_2" fill="#eb1a1a" fill-opacity="1" opacity="1">
		
			<rect x="387.18798828125" y="370.17401123046875" transform="matrix(0.7071 -0.7071 0.7071 0.7071 -163.6279 395.0264)" width="15.67300033569336" height="49.71200180053711" id="svg_3" fill="#eb1a1a" fill-opacity="1" opacity="1"/>
	</g>
</g><g id="svg_4" class="" fill="#4141e8" fill-opacity="1">
	<g id="svg_5" fill="#4141e8" fill-opacity="1">
		
			<rect x="423.6289978027344" y="423.6210021972656" transform="matrix(0.7071 -0.7071 0.7071 0.7071 -178.7242 431.4698)" width="15.67300033569336" height="15.704999923706055" id="svg_6" fill="#4141e8" fill-opacity="1"/>
	</g>
</g><g id="svg_7" class="" fill="#e7e767" fill-opacity="1" opacity="1">
	<g id="svg_8" fill="#e7e767" fill-opacity="1" opacity="1">
		<rect x="427.75" y="248.16600036621094" width="84.25" height="15.67300033569336" id="svg_9" fill="#e7e767" fill-opacity="1" opacity="1"/>
	</g>
</g><g id="svg_10" class="" fill="#e8e841" fill-opacity="1">
	<g id="svg_11" fill="#e8e841" fill-opacity="1">
		<rect x="365.1029968261719" y="96.92400360107422" transform="matrix(0.7071 -0.7071 0.7071 0.7071 45.197 318.637)" width="84.2490005493164" height="15.67300033569336" id="svg_12" fill="#e8e841" fill-opacity="1"/>
	</g>
</g><g id="svg_13" class="" fill="#ebeb1a" fill-opacity="1" opacity="1">
	<g id="svg_14" fill="#ebeb1a" fill-opacity="1" opacity="1">
		
			<rect x="96.93299865722656" y="62.64699935913086" transform="matrix(0.7071 -0.7071 0.7071 0.7071 -43.3988 104.7704)" width="15.67300033569336" height="84.2490005493164" id="svg_15" fill="#ebeb1a" fill-opacity="1" opacity="1"/>
	</g>
</g><g id="svg_16" class="" fill="#e8e841" fill-opacity="1">
	<g id="svg_17" fill="#e8e841" fill-opacity="1">
		<rect y="248.16600036621094" width="84.25" height="15.67300033569336" id="svg_18" fill="#e8e841" fill-opacity="1"/>
	</g>
</g><g id="svg_19" class="" fill="#e8e841" fill-opacity="1">
	<g id="svg_20" fill="#e8e841" fill-opacity="1">
		
			<rect x="62.63800048828125" y="399.4020080566406" transform="matrix(0.7071 -0.7071 0.7071 0.7071 -257.2771 193.3557)" width="84.2490005493164" height="15.67300033569336" id="svg_21" fill="#e8e841" fill-opacity="1"/>
	</g>
</g><g id="svg_22" class="" fill="#ffffff" fill-opacity="1">
	<g id="svg_23" fill="#ffffff" fill-opacity="1">
		
			<rect x="158.76800537109375" y="193.81399536132812" transform="matrix(0.3885 -0.9214 0.9214 0.3885 -83.8719 276.9149)" width="15.87399959564209" height="15.67300033569336" id="svg_24" fill="#ffffff" fill-opacity="1"/>
	</g>
</g><g id="svg_25" class="" fill="#e8e841" fill-opacity="1">
	<g id="svg_26" fill="#e8e841" fill-opacity="1">
		<polygon points="393.199,199.941 276.616,199.941 326.134,92.476 204.232,92.476 170.489,172.5 184.93,178.59 214.633,108.15     301.654,108.15 252.137,215.614 359.964,215.614 223.41,381.241 249.117,268.002 147.228,268.002 162.9,230.835 148.458,224.746     123.608,283.676 229.486,283.676 193.512,442.144   " id="svg_27" fill="#e8e841" fill-opacity="1"/>
	</g>
</g><g id="svg_28">
</g><g id="svg_29">
</g><g id="svg_30">
</g><g id="svg_31">
</g><g id="svg_32">
</g><g id="svg_33">
</g><g id="svg_34">
</g><g id="svg_35">
</g><g id="svg_36">
</g><g id="svg_37">
</g><g id="svg_38">
</g><g id="svg_39">
</g><g id="svg_40">
</g><g id="svg_41">
</g><g id="svg_42">
</g></g></svg>